Limits:
RED,6
GREEN,6
BLACK,6
YELLOW,6
BLUE,6
VIOLET,6
WHITE,6
ORANGE,6
ALL,7
MaxTracks,8
Staedte:
Oberhausen,1,1
Essen,3,1
Bochum,5,1
Wuppertal,4,5
Hagen,7,3
Dortmund,7,0
Strecken:
0,1,2,ALL,N
1,2,2,ALL,N
2,4,3,BLACK,N
3,4,3,RED,N
3,1,4,GREEN,N
0,3,4,BLUE,N
5,2,2,YELLOW,N
5,4,2,ORANGE,N
Auftraege:
0,2,-4
0,4,6
0,3,5
0,5,8
2,3,5
1,4,5
5,3,6
5,1,6