Limits:
RED,5
BLUE,5
GREEN,5
MaxTracks,10
Staedte:
Saarbruecken11
Saarlouis,2,2
Voelklingen,1,2
Neunkirchen,3,4
Zweibruecken,15,4
Strecken:
0,2,2,ALL,T
2,0,2,ALL,N
1,2,2,ALL,N
2,1,2,ALL,T
Auftraege:
0,2,4
1,2,2
0,4,4
1,4,1
2,4,5
3,4,1