Limits:
RED,12
GREEN,12
BLACK,12
YELLOW,12
BLUE,12
VIOLET,12
WHITE,12
ORANGE,12
ALL,14
MaxTracks,45
Staedte:
Vancouver,0,8
Seattle,0,7
Portland,0,6
San Francisco,0,3
Los Angeles,1,2
Calgary,3,8
Helena,4,6
Salt Lake City,3,4
Las Vegas,2,3
Phoenix,3,2
Winipeg,6,8
Denver,5,4
Santa Fe,5,3
El Paso,5,1
Duluth,7,6
Omaha,7,5
Kansas City,7,4
Oklahoma,7,3
Dallas,7,2
Houston,7,1
Sault St. Marie,9,7
Chicago,9,5
Saint Louis,8,4
Little Rock,8,3
New Orleans,9,1
Toronto,11,7
Pittsburg,11,5
Nashville,10,4
Atlanta,11,3
Montreal,12,8
Boston,13,7
New York,12,6
Washington,12,5
Raleigh,11,4
Charleston,12,3
Miami,13,0
Strecken:
0,1,1,ALL,N
1,2,1,ALL,N
0,5,3,ALL,N
1,5,4,ALL,N
2,7,6,BLUE,N
2,3,5,GREEN,N
2,3,5,VIOLET,N
3,7,4,ORANGE,N
3,7,4,WHITE,N
3,4,3,YELLOW,N
3,4,3,VIOLET,N
4,8,2,ALL,N
4,13,6,BLACK,N
4,9,3,ALL,N
5,6,4,ALL,N
5,10,6,WHITE,N
6,1,6,YELLOW,N
6,10,4,BLUE,N
6,14,6,ORANGE,N
6,7,3,VIOLET,N
6,15,5,RED,N
6,11,4,GREEN,N
7,8,3,ORANGE,N
7,11,3,RED,N
7,11,3,YELLOW,N
9,11,5,WHITE,N
9,12,3,ALL,N
9,13,3,ALL,N
10,14,4,BLACK,N
10,20,6,ALL,N
11,12,2,ALL,N
11,15,4,VIOLET,N
11,16,4,BLACK,N
11,16,4,ORANGE,N
11,17,4,RED,N
12,17,3,BLUE,N
12,13,2,ALL,N
13,19,6,GREEN,N
13,18,4,RED,N
13,17,5,YELLOW,N
14,20,3,ALL,N
14,25,6,VIOLET,N
14,21,3,RED,N
14,15,2,ALL,N
14,15,2,ALL,N
15,16,1,ALL,N
15,16,1,ALL,N
15,21,4,BLUE,N
16,17,2,ALL,N
16,17,2,ALL,N
16,22,2,BLUE,N
16,22,2,VIOLET,N
17,18,2,ALL,N
17,18,2,ALL,N
17,23,2,ALL,N
18,23,2,ALL,N
18,19,1,ALL,N
18,19,1,ALL,N
19,24,2,ALL,N
20,29,5,BLACK,N
20,25,2,ALL,N
21,26,3,ORANGE,N
21,26,3,BLACK,N
21,22,2,WHITE,N
21,22,2,GREEN,N
22,26,5,GREEN,N
22,23,2,ALL,N
22,27,2,ALL,N
23,27,3,WHITE,N
23,24,3,GREEN,N
24,28,4,ORANGE,N
24,28,4,YELLOW,N
24,35,6,RED,N
25,29,3,ALL,N
25,26,2,ALL,N
26,27,4,YELLOW,N
26,31,2,WHITE,N
26,31,2,GREEN,N
26,32,2,ALL,N
27,33,3,BLACK,N
27,28,1,ALL,N
28,33,2,ALL,N
28,33,2,ALL,N
28,34,2,ALL,N
28,35,5,BLUE,N
29,30,2,ALL,N
29,30,2,ALL,N
30,31,2,YELLOW,N
30,31,2,RED,N
31,32,2,ORANGE,N
31,32,2,BLACK,N
32,33,2,ALL,N
32,33,2,ALL,N
33,34,2,ALL,N
34,35,4,VIOLET,N
Auftraege:
20,27,8
16,19,5
2,9,11
4,35,20
2,27,17
11,13,4
5,9,13
1,31,22
4,21,16
5,7,7
10,23,11
30,35,12
25,35,10
14,19,8
29,28,9
0,29,20
20,17,9
6,4,8
31,28,6
18,31,11
3,28,17
11,26,11
1,4,9
4,31,21
21,24,7
0,12,13
29,24,13
14,13,10
21,12,9
10,19,12